Item,Price,Weight,Source,Category
"Bathtub, collapsible",15 gp,20 lbs.1,PZO1123,comfort_and_shelter
Bedroll,1 sp,5 lbs.1,PZO1123,comfort_and_shelter
Blanket,5 sp,3 lbs.1,PZO1123,comfort_and_shelter
"Chair, folding",2 gp,10 lbs.1,PZO1123,comfort_and_shelter
"Ladder, folding",2 gp,16 lbs.,PZO1123,comfort_and_shelter
Cot,1 gp,30 lbs.1,PZO1123,comfort_and_shelter
Hammock,1 sp,3 lbs.1,PZO1123,comfort_and_shelter
Soap,1 cp,1/2 lb.,PZO1123,comfort_and_shelter
"Tent, small",10 gp,20 lbs.1,PZO1123,comfort_and_shelter
"Tent, medium",15 gp,30 lbs.1,PZO1123,comfort_and_shelter
"Tent, large",30 gp,40 lbs.1,PZO1123,comfort_and_shelter
"Tent, pavilion",100 gp,50 lbs.1,PZO1123,comfort_and_shelter
"Tent, hanging",20 gp,15 lbs.,PZO1121,comfort_and_shelter
Fishhook,1 sp,—,PZO1123,hunting_and_fishing
"Net, bell",2 gp,2 lbs.,PZO1123,hunting_and_fishing
"Net, butterfly",5 gp,2 lbs.1,PZO1123,hunting_and_fishing
"Netting, camouflage",20 gp,5 lbs.,PZO1123,hunting_and_fishing
"Net, fishing",4 gp,5 lbs.,PZO1123,hunting_and_fishing
Scent cloak,20 gp,2 lbs./20,PPZO9410,hunting_and_fishing
"Trap, bear",2 gp,10 lbs.,PPZO9410,hunting_and_fishing
Animal-repellent sack,1 gp,1/2 lb.,PZO1140,misc_outdoors_gear
"Backpack, carrier",25 gp,5 lbs.,PZO1140,misc_outdoors_gear
"Backpack, hydration",40 gp,4 lbs.,PZO1140,misc_outdoors_gear
"Backpack, weaponrack",25 gp,5 lbs.,PZO1140,misc_outdoors_gear
Cooler chest,25 gp,60 lbs.,PZO1140,misc_outdoors_gear
Camouflaged canvas,1 gp,1 lb.,PZO1140,misc_outdoors_gear
Duo saw,100 gp,20 lbs.,PZO1140,misc_outdoors_gear
Efficient tent,150 gp,15 lbs.,PZO1140,misc_outdoors_gear
Field survival guide,20 gp,1 lb.,PZO1140,misc_outdoors_gear
Goblin fishing lure,5 gp,—,PZO1140,misc_outdoors_gear
Hunter’s stand,25 gp,15 lbs.,PZO1140,misc_outdoors_gear
Insulated flask,2 sp,1 lb.,PZO1140,misc_outdoors_gear
Nature climbing harness,60 gp,4 lbs.,PZO1140,misc_outdoors_gear
Privacy shelter,5 gp,10 lbs.,PZO1140,misc_outdoors_gear
Silent piton,5 sp,1/2 lb.,PZO1140,misc_outdoors_gear
Stretch cords,5 sp,1/2 lb.,PZO1140,misc_outdoors_gear
Tent cover,15 gp,15 lbs.,PZO1140,misc_outdoors_gear
Trekking pole,15 gp,2 lbs.,PZO1140,misc_outdoors_gear
Windup music box,25 gp,1/2 lb.,PZO1140,misc_outdoors_gear
Air bladder,1 sp,1/2 lb.,PZO1123,misc_outdoors_gear
Animal glue,5 sp,1/2 lb.,PZO1123,misc_outdoors_gear
Bell,1 gp,—,PZO1110,misc_outdoors_gear
"Buoy, common",5 sp,16 lbs.,PZO1110,misc_outdoors_gear
"Buoy, superior",10 gp,30 lbs.,PZO1110,misc_outdoors_gear
Compass,10 gp,1/2 lb.,PZO1123,misc_outdoors_gear
Heatstone,20 gp,1 lb.,ISWG,misc_outdoors_gear
Map,50 gp,2 lbs.,PZO1123,misc_outdoors_gear
"Mirror, small steel",10 gp,1/2 lb.,PZO1110,misc_outdoors_gear
"Rope, hemp (50 ft.)",1 gp,10 lbs.,PZO1123,misc_outdoors_gear
"Rope, bloodvine",200 gp,5 lbs.,ACG,misc_outdoors_gear
"Rope, silk (50 ft.)",10 gp,5 lbs.,PZO1123,misc_outdoors_gear
"Rope, spider’s silk (50 ft.)",100 gp,4 lbs.,PZO1123,misc_outdoors_gear
Star Charts,200 gp,1/2 lb.,PZO1121,misc_outdoors_gear
String or twine (50 ft.),1 cp,1/2 lb.,PZO1123,misc_outdoors_gear
"Horn, powder",3 gp,1 lb.,PZO1123,misc_outdoors_gear
"Horn, signal",1 gp,2 lbs.1,PZO1123,misc_outdoors_gear
"Whistle, beast",5 gp,—,FF,misc_outdoors_gear
"Whistle, signal",8 sp,—,PZO1123,misc_outdoors_gear
"Whistle, silent",9 sp,—,PZO1123,misc_outdoors_gear
Candle,1 cp,—,PZO1123,illumination_form
"Candle, helmet",2 gp,4 lbs,PZO1123,illumination_form
"Candle, insectbane", , ,??,illumination_form
Candle lamp,5 gp,1 lb.,PZO1123,illumination_form
Candlestick,1 cp,1/2 lb.,PZO1123,illumination_form
Darkflare,1 gp,—,Faction Guide,illumination_form
Firewood (per day),1 cp,20 lbs.,PZO1123,illumination_form
Lamp,1 sp,1 lb.,PZO1123,illumination_form
"Lamp, celestial",300 gp,2 lbs.,PZO1121,illumination_form
"Lantern, bullseye",12 gp,3 lbs.,PZO1123,illumination_form
"Lantern, darklight",20 gp,3 lbs.,PZO1121,illumination_form
"Lantern, hooded",7 gp,2 lbs.,PZO1123,illumination_form
"Lantern, miner’s",15 gp,2 lbs.,PCS:PSFG,illumination_form
"Lantern, waterproof",+5 gp,—,PZO1123,illumination_form
Moonrod,10 gp,1 lb.,PZO1121,illumination_form
Sunrod,2 gp,1 lb.,PZO1110,illumination_form
Thurible,50 gp,3 lbs.,PZO1123,illumination_form
Torch,1 cp,1 lb.,PZO1123,illumination_form
"Torch, everburning",110 gp,1 lb.,PZO1123,illumination_form
Absinthe (glass or bottle),3-30 gp,— (glass) 1-1/2 lbs. (bottle),PZO1123,beverages_(alcoholic)
Ale,2 sp,8 lbs.,PZO1110,beverages_(alcoholic)
Ale,4 cp,1 lb.,PZO1110,beverages_(alcoholic)
"Ale, Dwarven Stout",4 cp,1/2 lb.,PPZO9410,beverages_(alcoholic)
"Ale, Luglurch",1 gp, ,PPC:Halflings,beverages_(alcoholic)
"Ale, Luglurch",4 sp, ,PPC:Halflings,beverages_(alcoholic)
Applejack,4 sp,8 lbs.,PZO1123,beverages_(alcoholic)
Applejack,8 cp,1 lb.,PZO1123,beverages_(alcoholic)
Baijiu,10 gp,2 lbs.,PZO1123,beverages_(alcoholic)
Bufo,1 gp,2 lbs.,PZO1123,beverages_(alcoholic)
Cauim,1 gp,2 lbs.,PZO1123,beverages_(alcoholic)
Godsbrew,5 cp,1/2 lb.,PPZO9410,beverages_(alcoholic)
Grog (mug – PPZO9410; cup- PoIS),2 cp (PPZO9410) 1 cp (PoIS),1/2 lb. (PPZO9410) 1 lb. (PoIS),PPZO9410/PoIS,beverages_(alcoholic)
Kumis,5 sp,1-1/2 lbs.,PZO1123,beverages_(alcoholic)
Mead (mug),5 cp,1/2 lb.,PZO1123,beverages_(alcoholic)
Mead (gallon),2 gp,8 lbs.,PZO1123,beverages_(alcoholic)
"Mead, linnorm",5 cp,1/2 lb.,PPZO9410,beverages_(alcoholic)
"Mead, wasp",400 gp,2 lbs.,PPC:MM,beverages_(alcoholic)
Pulque,1 sp,1/2 lb.,PZO1123,beverages_(alcoholic)
Rumboozle,1 sp,1/2 lb.,PZO1123,beverages_(alcoholic)
Tepache,5 cp,1/2 lb.,PZO1123,beverages_(alcoholic)
"Whiskey, Dragon Punch",10 gp, ,PPC:Halflings,beverages_(alcoholic)
"Whiskey, Oldlaw", , ,PPZO9410,beverages_(alcoholic)
"Wine, common",2 sp,6 lbs.,PZO1110,beverages_(alcoholic)
"Wine, fine",10 gp,1-1/2 lbs.,PZO1110,beverages_(alcoholic)
"Wine, Sangwine",200 gp,2 lbs.,PPC:MM,beverages_(alcoholic)
"Wine, sealord",15 gp,1/2 lb.,PZO1123,beverages_(alcoholic)
"Coffee, common",1 cp,1/2 lb.,PPZO9410,beverages_(nonalcoholic)
"Coffee, exotic",3 cp,1/2 lb.,PZO1123,beverages_(nonalcoholic)
"Coffee, desert",2 cp,1/2 lb.,PZO1123,beverages_(nonalcoholic)
"Coffee, dragon’s blend",1 gp,—,PPC:MM,beverages_(nonalcoholic)
"Coffee, hybrid",1 gp,—,PPC:MM,beverages_(nonalcoholic)
"Coffee, marching",1 gp,—,PPC:MM,beverages_(nonalcoholic)
Milk,5 cp,1/2 lb.,PZO1123,beverages_(nonalcoholic)
"Milk, powdered",1 sp,1 lb.,PZO1123,beverages_(nonalcoholic)
Tea,2 cp,1/2 lb.,PZO1123,beverages_(nonalcoholic)
"Tea, ceremonial",4 cp,1/2 lb.,PPZO9410,beverages_(nonalcoholic)
"Tonic, medicinal",10 gp, ,PPC:Halflings,beverages_(nonalcoholic)
Bread,2 cp,1/2 lb.,PZO1110,foods
Caviar,50 gp,—,PZO1123,foods
Cheese,1 sp,1/2 lb.,PZO1123,foods
Chocolate,5 gp,1/2 lb.,PZO1123,foods
Fortune cookie,1 cp,—,PZO1123,foods
Haggis,1 sp,1-1/2 lbs.,PZO1123,foods
Honey,1 gp,1/2 lb.,PZO1123,foods
Ice cream,1 sp,—,PZO1123,foods
Maple syrup,1 gp,1/2 lb.,PZO1123,foods
"Meal, banquet",10 gp,—,PZO1110,foods
"Meal, good",5 sp,—,PZO1110,foods
"Meal, common",3 sp,—,PZO1110,foods
"Meal, poor",1 sp,—,PZO1110,foods
Meat,3 sp,1/2 lb.,PZO1110,foods
"Meat, street",1 cp,1/2 lb.,PZO1123,foods
"Rations, trail",5 sp,1 lb.*,PZO1123,foods
"Rations, Dwarven trail",2 gp,1-1/2 lbs.*,PZO1123,foods
"Rations, Elven trail",2 gp,1 lb.*,PZO1123,foods
"Rations, Gnome trail",2 gp,1 lb. *,PZO1123,foods
"Rations, Halfling trail",2 gp,1/2 lb.*,PZO1123,foods
"Rations, Orc trail",1 gp,1 lb.*,PZO1123,foods
"Rations, Wandermeal (per serving)",1 cp,1/2 lb.,PPZO9410,foods
Travel cake mix,1 sp,1 lb.,PZO1123,foods
Yogurt,1 sp,1/2 lb.,PZO1123,foods
