Item,Craft DC,Price,Weight,Source,Category
Brain mold spores [APC],â,5 gp,â,PZO9445,alchemical_reagents
Brimstone/Sulfur [APC],â,5 sp,â,PZO9445,alchemical_reagents
Cold iron [APC],â,1 gp,â,PZO9445,alchemical_reagents
Ginger extract [APC],â,5 sp,â,PZO9445,alchemical_reagents
Gold [APC],â,5 gp,â,PZO9445,alchemical_reagents
Keif [APC],â,15 gp,â,PZO9445,alchemical_reagents
Magnesium [APC],â,1 gp,â,PZO9445,alchemical_reagents
Mugwort extract [APC],â,2 gp,â,PZO9445,alchemical_reagents
Myrrh [APC],â,5 sp,â,PZO9445,alchemical_reagents
Moondew [APC],â,4 gp,â,PZO9445,alchemical_reagents
Phosphorus [APC],â,2 sp,â,PZO9445,alchemical_reagents
Quicksilver [APC],â,1 gp,â,PZO9445,alchemical_reagents
Realgar [APC],â,3 gp,â,PZO9445,alchemical_reagents
"Powder, Black [APC]",â,10 gp,â,PZO9445,alchemical_reagents
Salt [APC],â,5 sp,â,PZO9445,alchemical_reagents
Saltpeter [APC],â,3 gp,â,PZO9445,alchemical_reagents
Silver [APC],â,1 gp,â,PZO9445,alchemical_reagents
Spirit of Wine [APC],â,5 sp,â,PZO9445,alchemical_reagents
Urea [APC],â,5 sp,â,PZO9445,alchemical_reagents
Essence of Night,25,150 gp,â,PRG:TWoVHD,oils_and_flammables
"Oil, alchemist’s fire (1 flask) [APC]",20,20 gp,1 lb.,PZO1110,oils_and_flammables
"Oil, anointing",â,25 gp,1 lb.,PZO1121,oils_and_flammables
"Oil, kerosine",15,5 gp,â,PZO9410,oils_and_flammables
"Oil, lamp",â,1 sp,1 lb.,PZO1110,oils_and_flammables
"Oil, quick freeze",â,50 gp,1 lb.,PZO9430,oils_and_flammables
"Oil, stalkers",â,50 gp,â,PZO9487E,oils_and_flammables
"Oil, wing",â,1 gp,â,PZO1121,oils_and_flammables
Alchemist’s lab,â,200 gp,40 lbs.,PZO1110,tools_devices_and_kits
Alchemist’s lab (portable),â,75 gp,20 lbs.,PZO1110,tools_devices_and_kits
Artificer’s lab (portable),â,300 gp,40 lbs.,PZO1121,tools_devices_and_kits
Bomb launcher,â,10 gp,1/2 lb.,PZO1121,tools_devices_and_kits
Buoyant balloon,15,10 gp,1 lb.,PZO1123,tools_devices_and_kits
Candlerod,20,1 gp,1 lb.,PZO1123,tools_devices_and_kits
"Grenade, Sting",â,100 gp,1 lb.,PZO90115,tools_devices_and_kits
Light detector,10,1 gp,â,PZO1123,tools_devices_and_kits
Pox burster,â,50 gp,1 lb.,PZO1121,tools_devices_and_kits
Sunrod,25,2 gp,1 lb.,PZO1110,tools_devices_and_kits
Water purification sponge,15,25 gp,1 lb.,PZO1123,tools_devices_and_kits
Acid (1 flask) [APC],15,10 gp,1 lb.,PZO1110,misc_substances
Air crystals,â,50 gp,â,PZO9235,misc_substances
Alchemical cement,15,5 gp,2 lbs.,PZO1123,misc_substances
Alchemical coal (blinding cinders),â,100 gp,â,PZO1121,misc_substances
Alchemical coal (choking smoke),â,50 gp,â,PZO1121,misc_substances
Alchemical glue,20,20 gp,1/2 lb.,PZO1123,misc_substances
Alchemical glue accelerant,25,25 gp,â,PZO1123,misc_substances
Alchemical preserves,â,50 gp,â,PZO1121,misc_substances
Alchemical solvent,20,20 gp,1/2 lb.,PZO9410,misc_substances
Alchemist’s kindness,â,1 gp,â/20,PZO1115,misc_substances
Alkali flask,20,15 gp,1 lb.,DDR,misc_substances
Alkali salt,20,30 gp,â,DDR,misc_substances
Ambrosia,â,100 gp,1 lb.,PZO1121,misc_substances
Black fester,â,30 gp,â,PZO1121,misc_substances
Bladeguard [APC],15,40 gp,â,PZO9410,misc_substances
Blightburn paste,30,"5,000 gp",45 lb.,KoG,misc_substances
Brewed reek,25,40 gp,1 lb.,PZO1121,misc_substances
"Censer, Celestial",–,20 gp,1/2 lb.,PZO1121,misc_substances
"Censer, Toxic",–,115 gp,1 lb.,PZO9487E,misc_substances
"Clay, blackfire",20,20 gp,10 lbs.,PZO1123,misc_substances
"Cream, chill",15,15 gp,1 lb.,PZO1123,misc_substances
Defoliant,25,30 gp,â,PZO1123,misc_substances
Deodorizing agent,25,30 gp,â,PZ09429,misc_substances
Dimmer dust,25,25 gp,1/2 lb.,KoG,misc_substances
"Dye, hide",?,20 gp,1 lb.,PZO1123,misc_substances
"Dye, marker",15,15 gp,1 lb.,PZO1123,misc_substances
Elemental breath,â,80 gp,1/2 lb.,PZO1121,misc_substances
Elemental flux (flask),â,20 gp,1 lb.,PZO1121,misc_substances
Embalming fluid,25,50 gp,10 lbs.,PZO1123,misc_substances
Fleshgem (decorative),â,1 gp,â,PZO1121,misc_substances
Fleshgem (spiked),â,50 gp,5 lbs.,PZO1121,misc_substances
"Foam, impact",20,25 gp,1 lb.,PZO1123,misc_substances
Fungal stun vial,30,75 gp,1/2 lb.,KoG,misc_substances
Fury drops,25,50 gp,â,PZ09429,misc_substances
"Gel, fire ward",25,150 gp,1 lb.,PZO1123,misc_substances
"Gel, frost ward",25,150 gp,1 lb.,PZO1123,misc_substances
"Gel, phosphorescent", ,45 gp,1/2 lb.,PZO9430,misc_substances
"Grease, alchemical [APC]",15,5 gp,1 lb.,PZO9410,misc_substances
Hobgoblin war draught,20*,10 gp,1 lb.,PZO1121,misc_substances
Hound’s blood,â,110 gp,â,PZO1121,misc_substances
Ifrit’s blood,â,50 gp,1 lb.,PZO1121,misc_substances
Incense (10 sticks),â,10 gp,1 lb.,PZO1121,misc_substances
"Incense, scentbane",â,80 gp,â,PZO1121,misc_substances
Incendiary Catalyst,â,40 gp,1 lb.,PZO90115,misc_substances
"Ink, glowing",15,5 gp,â,PZO1123,misc_substances
"Ink, invisible (simple)",15,2 gp,â,PZO1123,misc_substances
"Ink, invisible (average)",20,10 gp,â,PZO1123,misc_substances
"Ink, invisible (good)",20,25 gp,â,PZO1123,misc_substances
"Ink, invisible (superior)",25,75 gp,â,PZO1123,misc_substances
Liquid ice [APC],25,40 gp,2 lb.,PZO9410,misc_substances
Noxious aromatic,20,15 gp,1 lb.,PZ09429,misc_substances
"Ointment, armor",15,30 gp,1 lb.,PZO1123,misc_substances
"Ointment, Loping",â,60 gp,1 lb.,PZO90115,misc_substances
"Ooze, grease",25,50 gp,1 lb.,DDR,misc_substances
"Ooze, petrified",â,80 gp,1/2 lb.,PZO9430,misc_substances
"Paste, blackfingers (1 dose)",â,50 gp,â,PZO9232,misc_substances
"Paste, bone (1 sq. ft. or 20 small applications)",?,75 gp,1 lb.,PZO9430,misc_substances
"Paste, mending",25,25 gp,1/2 lb.,PZO1123,misc_substances
"Paste, paper wall",15,10 gp,2 lbs.,KoG,misc_substances
Plague powder,25,Varies,â,PZO1135,misc_substances
"Paste, shrieking",?,35 gp,2 lbs.,PZO9430,misc_substances
"Plaster, casting",â,5 sp,5 lbs.,PZO1123,misc_substances
Poison tattoo,â,50 gp,â,PZO1121,misc_substances
"Powder, flash [APC]",20,50 gp,â,PZO9410,misc_substances
"Powder, foaming",20,10 gp,1 lb.,PZO1123,misc_substances
"Powder, insomnia", ,60 gp,2 lbs.,PZO9430,misc_substances
"Powder, itching [APC]",25,60 gp,2 lbs.,PZO9410,misc_substances
"Powder, normal",â,1 cp,1/2 lb.,PZO9410,misc_substances
"Powder, rusting",30,60 gp,â,PZO1123,misc_substances
"Powder, sneezing",25,60 gp,2 lbs.,PZO9410,misc_substances
Reanimating fluid,25,100 gp,â,PZO1135,misc_substances
"Repellent, vermin",20,5 gp,â,PZO9410,misc_substances
"Salve, exemplar weapon",â,350 gp,1 lb.,PZO9455,misc_substances
"Salve, stonechipper",â,150 gp,1 lb.,PZO1121,misc_substances
Scent cloak,20,20 gp,2 lbs.,PZO1123,misc_substances
Shadowcloy (flask),â,25 gp,1 lb.,PZO1121,misc_substances
Silversheen,see text,+750 gp,â,â,misc_substances
Soul stimulant,30,300 gp,â,PZO1123,misc_substances
Spellscorch,?,200 gp,?? lb.,PZO1121,misc_substances
Spider sac,20,30 gp,1 lb.,PZO1121,misc_substances
Sunderblock, ,35 gp,2 lbs.,PZO9455,misc_substances
Terrap sap (distilled),15,30 gp,1/2 lb.,PZO9410,misc_substances
"Unguent, fiendgore",â,75 gp,1 lb.,PZO1121,misc_substances
Unstable Accelerant,25,50 gp,1/2 lb.,PZO1121,misc_substances
Vitus (flask),25,80 gp,â,PZO1123,misc_substances
"Weapon blanch, adamantine",25,100 gp,1 lb.,PZO1115,misc_substances
"Weapon blanch, cold iron",20,50 gp,1 lb.,PZO1115,misc_substances
"Weapon blanch, ghost salt",â,200 gp,1/2 lb.,PZO9235,misc_substances
"Weapon blanch, silver",20,5 gp,1 lb.,PZO1115,misc_substances
Antiplague [APC],25,50 gp,â,"PZO9410, PZO1115",balms_medicines_and_tonics
Antitoxin (vial) [APC],25,50 gp,â,PZO1110,balms_medicines_and_tonics
Bloodblock,25,25 gp,â,PZO1123,balms_medicines_and_tonics
Bodybalm,25,25 gp,â,PZO9410,balms_medicines_and_tonics
Clear ear,â,15 gp,â,PZO9410,balms_medicines_and_tonics
Healy myrrh,see text,50 gp,â,â,balms_medicines_and_tonics
Mellowroot,â,25 gp,â,PZO1121,balms_medicines_and_tonics
Peptus salix,20,30 gp,â,PZO1123,balms_medicines_and_tonics
Smelling salts,20,25 gp,â,PZO1115,balms_medicines_and_tonics
Soothe syrup,15,25 gp,1/2 lb.,PZO1115,balms_medicines_and_tonics
Stillgut,â,50 gp,â,PZO1121,balms_medicines_and_tonics
"Tonic, blight",â,150 gp,1 lb.,PZO1121,balms_medicines_and_tonics
"Tonic, twitch",25,45 gp,â,PZO1123,balms_medicines_and_tonics
Troll oil,30,50 gp,1 lb.,PZO1123,balms_medicines_and_tonics
Troll styptic,25,100 gp,â,PZO9211,balms_medicines_and_tonics
Unguent of revivification (1 dose),â,50 gp,â,PCS,balms_medicines_and_tonics
Woundweal,â,100 gp,â,PZO9410,balms_medicines_and_tonics
Beast lure,20,30 gp,1/2 lb.,PZO9410,hunting_aids
Beast scent,25,75 gp,1/2 lbs.,PZO9211,hunting_aids
"Musk, harpy",â,2 gp,â,RotRLPG,hunting_aids
"Musk, wild",20,40 gp,1/2 lb.,PZO9410,hunting_aids
Allnight,â,75 gp,â,PZO9410,herbs_and_plants
Angelstep,15,25 gp,â,PZO1140,herbs_and_plants
Barbarian chew,â,1 gp,â,PZO9410,herbs_and_plants
Belladonna,â,2 gp,â,PZO9410,herbs_and_plants
Black Amaranth,12,100 gp,â,PZO1140,herbs_and_plants
Bloody Mandrake,15,15 gp,â,PZO1140,herbs_and_plants
Bone Reed,10,75 gp,â,PZO1140,herbs_and_plants
Cloud Puff,12,100 gp,â,PZO1140,herbs_and_plants
Dreamer’s star,â,5 gp,â,PZO9456,herbs_and_plants
Dragon Rose,15,25 gp,â,PZO1140,herbs_and_plants
Dream Lichen,25,"2,000 gp",â,PZO1140,herbs_and_plants
Fairy Cap,20,250 gp,â,PZO1140,herbs_and_plants
Flayleaf,â,20 gp,2 lbs.,PZO9410,herbs_and_plants
Garlic,â,1 sp,1 lb.,PZO9410,herbs_and_plants
Goblinvine,special,30 gp,1 lb.,PZO1140,herbs_and_plants
Holly,â,â,â,PZO9410,herbs_and_plants
Holly and mistletoe,â,â,â,PZO1110,herbs_and_plants
"Leaves, Golden Maple",â,50 gp,1/2 lb.,PZO1121,herbs_and_plants
Leechwort (PZO9456),â,25 gp,1 lb.,PZO9456,herbs_and_plants
Leechwort (PZO1140),15,3 gp,â,PZO1140,herbs_and_plants
"Lichen, camouflage",â,100 gp,â,PZO1121,herbs_and_plants
Love-In-Idleness,14,150 gp,â,PZO1140,herbs_and_plants
Merfolk’s Comb,14,750 gp,â,PZO1140,herbs_and_plants
Mimameith,20,600 gp,â,PZO1140,herbs_and_plants
Mistletoe,â,â,â,PZO9410,herbs_and_plants
Moly,25,"1,200 gp",â,PZO1140,herbs_and_plants
Nepenthe,16,400 gp,â,PZO1140,herbs_and_plants
Nightsage,12,100 gp,â,PZO1140,herbs_and_plants
Poppy tears,â,20 gp,â,PZO9410,herbs_and_plants
Seeing Slime,see text,160 gp,â,PZO1140,herbs_and_plants
"Tea, meditation",20,30 gp,â,PZO1123,herbs_and_plants
"Tea, night",â,1 sp,â,PZO9410,herbs_and_plants
Tobacco,â,1 gp,2 lbs.,PZO9410,herbs_and_plants
Twilight dagger,â,50 gp,â,PZO9456,herbs_and_plants
Winterbite (PZO9456),â,1 gp,â,PZO9456,herbs_and_plants
Winterbite (PZO1140),12,20 gp,â,PZO1140,herbs_and_plants
Wolfsbane,â,5 sp,â,PZO9410,herbs_and_plants
Smoke pellet,20,25 gp,â,PZO9410,special_equipment
"Smoke pellet, pepper",â,60 gp,â,PZO9430,special_equipment
"Smoke pellet, smog",â,40 gp,â,PZO9430,special_equipment
Smokestick [APC],20,20 gp,1/2 lb.,PZO1110,special_equipment
Tanglefoot bag [APC],â,50 gp,4 lbs.,PZO1110,special_equipment
Tar bomb,â,15 gp,2 lbs.,PZO9422,special_equipment
Thunderstone [APC],â,30 gp,1 lb.,PZO1110,special_equipment
Tindertwig,20,1 gp,â,PZO1110,special_equipment
"Torch, everburning",â,110 gp,1 lb.,PZO1110,special_equipment
