Item,Price,Weight,Source,Category
"Book, adventurer’s chronicle",50 gp,1 lb.,PZO9226,books
"Book, arcane family workbook",300 gp,3 lbs.,PZO1121,books
"Book, blue",5 gp,1 lb.,PZO1123,books
"Book, cypher",150 gp,2 lbs.,PZO1123,books
"Book, footprints",50 gp,3 lbs.,PZO1115,books
"Book, heritage",50 gp,2 lbs.,PZO1123,books
"Book, hollow",15 gp,3 lbs.,PZO1134,books
"Book, journal",10 gp,1 lb.,PZO1123,books
"Book, obsession log",25 gp,1 lb.,PZO1121,books
"Book, of letters",50 gp,3 lbs.,PZO1123,books
"Book, of puzzles",50 gp,1 lb.,PZO1129,books
"Book, of War Prayers",50 gp,1/2 lb.,PZO1129,books
"Book, portrait",10 gp,3 lbs.,PZO1115,books
"Book, dream prophecies",75 gp,10 lbs.,PZO9410,books
"Book, traveler’s dictionary",50 gp,2 lbs.,PZO1123,books
"Book, Dungeon Guide (“Grave Journal“)","4,600 gp",?,PPC:DHB,books
"Book, Dungeon Guide (“Observations of the Drowned City“)","3,500 gp",?,PPC:DHB,books
"Book, Dungeon Guide (“A Thread Of Silver“)","6,700 gp",?,PPC:DHB,books
Spellbook,15 gp,3 lbs.,PZO1110,books
"Spellbook, compact",50 gp,1 lb.,PZO1121,books
"Spellbook, traveling",10 gp,1 lb.,PZO9410,books
Book Lariat,3 sp,1/2 lb.,PZO1129,books
Chalk (1 piece),1 cp,â,PZO1110,inks_and_writing_utensils
Charcoal (1 stick),5 sp,â,PCS:SOS,inks_and_writing_utensils
Ink,8 gp,â,PZO1123,inks_and_writing_utensils
"Ink, ghost",25 gp,â/20,PCS:SOS,inks_and_writing_utensils
"Ink, glowing (vial)",5 gp,â,PZO9410,inks_and_writing_utensils
"Ink, invisible (simple)",2 gp,â,PZO9410,inks_and_writing_utensils
"Ink, invisible (average)",10 gp,â,PZO9410,inks_and_writing_utensils
"Ink, invisible (good)",25 gp,â,PZO9410,inks_and_writing_utensils
"Ink, invisible (superior)",75 gp,â,PZO9410,inks_and_writing_utensils
"Ink, light fire (vial)",40 gp,â,"
",inks_and_writing_utensils
"Ink, stink",5 gp,1 lb.,PZO1121,inks_and_writing_utensils
"Ink, stink (arcane)",special,1 lb.,PZO1121,inks_and_writing_utensils
"Ink, fire",1 gp,??,PZO1121,inks_and_writing_utensils
Inkpen,1 sp,â,PZO1110,inks_and_writing_utensils
Chalkboard,1 gp,2 lbs.,PZO1115,things_to_write_paint_or_draw_on
Paper (1 sheet),4 sp,â,PZO1115 / PZO9410,things_to_write_paint_or_draw_on
"Paper, rice (1 sheet)",5 cp,â,PZO1115 / PZO9410,things_to_write_paint_or_draw_on
Parchment (1 sheet),2 sp,â,PZO1115 / PZO1110,things_to_write_paint_or_draw_on
Stationery,1 gp,â,PZO9410,things_to_write_paint_or_draw_on
"Case, map or scroll",1 gp,1/2 lb.,PZO1110 / PZO1115,other_writing_supplies_and_tools
Pantograph,? ,? ,PCS:SOS,other_writing_supplies_and_tools
Printing press (1 page),250 gp,150 lbs.,PZO9410,other_writing_supplies_and_tools
"Quill, Poisoned",30 gp,â,PPC:P&P,other_writing_supplies_and_tools
Sealing wax,1 gp,1 lb.,PZO1110,other_writing_supplies_and_tools
